%YAML 1.1
%TAG !u! tag:unity3d.com,2011:
--- !u!74 &7400000
AnimationClip:
  m_ObjectHideFlags: 0
  m_CorrespondingSourceObject: {fileID: 0}
  m_PrefabInstance: {fileID: 0}
  m_PrefabAsset: {fileID: 0}
  m_Name: Explosion_Animation
  serializedVersion: 6
  m_Legacy: 0
  m_Compressed: 0
  m_UseHighQualityCurve: 1
  m_RotationCurves: []
  m_CompressedRotationCurves: []
  m_EulerCurves: []
  m_PositionCurves: []
  m_ScaleCurves: []
  m_FloatCurves: []
  m_PPtrCurves:
  - curve:
    - time: 0
      value: {fileID: -6669620641805699595, guid: 8964941f5bb3b8e4f8e2a0b1f1ce0485, type: 3}
    - time: 0.05
      value: {fileID: 8739957576107688355, guid: 8964941f5bb3b8e4f8e2a0b1f1ce0485, type: 3}
    - time: 0.13333334
      value: {fileID: 5635455758564370096, guid: 8964941f5bb3b8e4f8e2a0b1f1ce0485, type: 3}
    - time: 0.18333334
      value: {fileID: 5537957394274641057, guid: 8964941f5bb3b8e4f8e2a0b1f1ce0485, type: 3}
    - time: 0.28333333
      value: {fileID: -8832538221153169483, guid: 8964941f5bb3b8e4f8e2a0b1f1ce0485, type: 3}
    - time: 0.33333334
      value: {fileID: -201660949641829406, guid: 8964941f5bb3b8e4f8e2a0b1f1ce0485, type: 3}
    - time: 0.41666666
      value: {fileID: -1629417137046675862, guid: 8964941f5bb3b8e4f8e2a0b1f1ce0485, type: 3}
    - time: 0.46666667
      value: {fileID: 6494364660236135139, guid: 8964941f5bb3b8e4f8e2a0b1f1ce0485, type: 3}
    - time: 0.53333336
      value: {fileID: 5460178268110821496, guid: 8964941f5bb3b8e4f8e2a0b1f1ce0485, type: 3}
    - time: 0.5833333
      value: {fileID: 2004465587362033767, guid: 8964941f5bb3b8e4f8e2a0b1f1ce0485, type: 3}
    - time: 0.6666667
      value: {fileID: -3278069885183795559, guid: 8964941f5bb3b8e4f8e2a0b1f1ce0485, type: 3}
    - time: 0.71666664
      value: {fileID: -797908241041273324, guid: 8964941f5bb3b8e4f8e2a0b1f1ce0485, type: 3}
    - time: 0.81666666
      value: {fileID: -106508668740977689, guid: 8964941f5bb3b8e4f8e2a0b1f1ce0485, type: 3}
    - time: 0.8666667
      value: {fileID: 3672370798299901927, guid: 8964941f5bb3b8e4f8e2a0b1f1ce0485, type: 3}
    - time: 0.95
      value: {fileID: -8446525767341851224, guid: 8964941f5bb3b8e4f8e2a0b1f1ce0485, type: 3}
    - time: 1
      value: {fileID: 6539262020866073274, guid: 8964941f5bb3b8e4f8e2a0b1f1ce0485, type: 3}
    attribute: m_Sprite
    path: 
    classID: 212
    script: {fileID: 0}
  m_SampleRate: 60
  m_WrapMode: 0
  m_Bounds:
    m_Center: {x: 0, y: 0, z: 0}
    m_Extent: {x: 0, y: 0, z: 0}
  m_ClipBindingConstant:
    genericBindings:
    - serializedVersion: 2
      path: 0
      attribute: 0
      script: {fileID: 0}
      typeID: 212
      customType: 23
      isPPtrCurve: 1
    pptrCurveMapping:
    - {fileID: -6669620641805699595, guid: 8964941f5bb3b8e4f8e2a0b1f1ce0485, type: 3}
    - {fileID: 8739957576107688355, guid: 8964941f5bb3b8e4f8e2a0b1f1ce0485, type: 3}
    - {fileID: 5635455758564370096, guid: 8964941f5bb3b8e4f8e2a0b1f1ce0485, type: 3}
    - {fileID: 5537957394274641057, guid: 8964941f5bb3b8e4f8e2a0b1f1ce0485, type: 3}
    - {fileID: -8832538221153169483, guid: 8964941f5bb3b8e4f8e2a0b1f1ce0485, type: 3}
    - {fileID: -201660949641829406, guid: 8964941f5bb3b8e4f8e2a0b1f1ce0485, type: 3}
    - {fileID: -1629417137046675862, guid: 8964941f5bb3b8e4f8e2a0b1f1ce0485, type: 3}
    - {fileID: 6494364660236135139, guid: 8964941f5bb3b8e4f8e2a0b1f1ce0485, type: 3}
    - {fileID: 5460178268110821496, guid: 8964941f5bb3b8e4f8e2a0b1f1ce0485, type: 3}
    - {fileID: 2004465587362033767, guid: 8964941f5bb3b8e4f8e2a0b1f1ce0485, type: 3}
    - {fileID: -3278069885183795559, guid: 8964941f5bb3b8e4f8e2a0b1f1ce0485, type: 3}
    - {fileID: -797908241041273324, guid: 8964941f5bb3b8e4f8e2a0b1f1ce0485, type: 3}
    - {fileID: -106508668740977689, guid: 8964941f5bb3b8e4f8e2a0b1f1ce0485, type: 3}
    - {fileID: 3672370798299901927, guid: 8964941f5bb3b8e4f8e2a0b1f1ce0485, type: 3}
    - {fileID: -8446525767341851224, guid: 8964941f5bb3b8e4f8e2a0b1f1ce0485, type: 3}
    - {fileID: 6539262020866073274, guid: 8964941f5bb3b8e4f8e2a0b1f1ce0485, type: 3}
  m_AnimationClipSettings:
    serializedVersion: 2
    m_AdditiveReferencePoseClip: {fileID: 0}
    m_AdditiveReferencePoseTime: 0
    m_StartTime: 0
    m_StopTime: 1.0166667
    m_OrientationOffsetY: 0
    m_Level: 0
    m_CycleOffset: 0
    m_HasAdditiveReferencePose: 0
    m_LoopTime: 0
    m_LoopBlend: 0
    m_LoopBlendOrientation: 0
    m_LoopBlendPositionY: 0
    m_LoopBlendPositionXZ: 0
    m_KeepOriginalOrientation: 0
    m_KeepOriginalPositionY: 1
    m_KeepOriginalPositionXZ: 0
    m_HeightFromFeet: 0
    m_Mirror: 0
  m_EditorCurves: []
  m_EulerEditorCurves: []
  m_HasGenericRootTransform: 0
  m_HasMotionFloatCurves: 0
  m_Events: []
